<svg width="78" height="78" viewBox="0 0 78 78" fill="none" xmlns="http://www.w3.org/2000/svg">
  <g clip-path="url(#clip0_2126_11413)">
    <path d="M45.3034 0H19.5C16.9141 0 14.4342 1.02723 12.6057 2.85571C10.7772 4.68419 9.75 7.16414 9.75 9.75V68.25C9.75 70.8359 10.7772 73.3158 12.6057 75.1443C14.4342 76.9728 16.9141 78 19.5 78H58.5C61.0859 78 63.5658 76.9728 65.3943 75.1443C67.2228 73.3158 68.25 70.8359 68.25 68.25V22.9466C68.2497 21.6538 67.7359 20.414 66.8216 19.5L48.75 1.42838C47.836 0.514072 46.5962 0.000276107 45.3034 0V0ZM46.3125 17.0625V7.3125L60.9375 21.9375H51.1875C49.8946 21.9375 48.6546 21.4239 47.7404 20.5096C46.8261 19.5954 46.3125 18.3554 46.3125 17.0625ZM41.4375 34.125V41.4375H48.75C49.3965 41.4375 50.0165 41.6943 50.4736 42.1514C50.9307 42.6085 51.1875 43.2285 51.1875 43.875C51.1875 44.5215 50.9307 45.1415 50.4736 45.5986C50.0165 46.0557 49.3965 46.3125 48.75 46.3125H41.4375V53.625C41.4375 54.2715 41.1807 54.8915 40.7236 55.3486C40.2665 55.8057 39.6465 56.0625 39 56.0625C38.3535 56.0625 37.7335 55.8057 37.2764 55.3486C36.8193 54.8915 36.5625 54.2715 36.5625 53.625V46.3125H29.25C28.6035 46.3125 27.9835 46.0557 27.5264 45.5986C27.0693 45.1415 26.8125 44.5215 26.8125 43.875C26.8125 43.2285 27.0693 42.6085 27.5264 42.1514C27.9835 41.6943 28.6035 41.4375 29.25 41.4375H36.5625V34.125C36.5625 33.4785 36.8193 32.8585 37.2764 32.4014C37.7335 31.9443 38.3535 31.6875 39 31.6875C39.6465 31.6875 40.2665 31.9443 40.7236 32.4014C41.1807 32.8585 41.4375 33.4785 41.4375 34.125Z"
          fill="#A6B5D7" fill-opacity="0.6"/>
  </g>
  <defs>
    <clipPath id="clip0_2126_11413">
      <rect width="78" height="78" fill="white"/>
    </clipPath>
  </defs>
</svg>
